The social media trap · Blanche
…
## Warning: Problem with `mutate()` input `emailhr`.
## ℹ NAs introduced by coercion
## ℹ Input `emailhr` is `as.numeric(emailhr)`.

## Warning in mask$eval_all_mutate(dots[[i]]): NAs introduced by coercion

## Warning: Problem with `mutate()` input `emailmin`.
## ℹ NAs introduced by coercion
## ℹ Input `emailmin` is `as.numeric(emailmin)`.

## Warning in mask$eval_all_mutate(dots[[i]]): NAs introduced by coercion

email

## # A tibble: 2,867 x 9
##    emailmin emailhr snapchat instagrm twitter sex    degree     snap_insta email
##       <dbl>   <dbl> <chr>    <chr>    <chr>   <chr>  <chr>      <chr>      <dbl>
##  1       30      12 NA       NA       NA      Female High scho… NA         21600
##  2       15      20 No       Yes      No      Female High scho… Yes        18000
##  3       30       9 NA       NA       NA      Female Graduate   NA         16200
##  4       30       8 No       No       Yes     Male   Graduate   No         14400
##  5       30       3 NA       NA       NA      Male   High scho… NA          5400
##  6       30       3 NA       NA       NA      Female Graduate   NA          5400
##  7       30       3 NA       NA       NA      Male   Graduate   NA          5400
##  8       30       2 No       No       No      Male   Graduate   No          3600
##  9       30       2 NA       NA       NA      Male   Graduate   NA          3600
## 10       30       2 No       No       No      Female Bachelor   No          3600
## # … with 2,857 more rows
…
